ID;Рейтинг;Name;Имя;Прозвище;Last Name;Фамилия;Возраст;Рекорд ;Рост;Вес;Базовый стиль;Родной город;Зал;Дебют;Победы приемами;Победы решениями;Финиши в первом раунде;Победы нокаутами;Победная серия;Размах рук;Размах ног ;Точность ударов;Нанесение акц. ударов;Выброшенные акц. удары;Статистика в борьбе;Тейкдаунов выполнено ;Тейкдауны попыток;Наносит акц. ударов за мин.;Пропускает акц. ударов за мин.;Тейкдаунов за 15 мин.;Попыток сабмишина за 15 мин.;Защита от акц. ударов;Защита от тейкдаунов;Нокдаунов за бой/ средн.;Среднее время боя;Акц. удары в стойке;Акц. удары в клинче;Акц. удары в партере;Акц. удары цель/ голова;Акц. удары цель/ Корпус;Акц. удары цель/ Ноги;Победы КО/ТКО;Победы решением;Победы сабмишен
1;13;Ryan;Раян;Baby face;Benoit;Бенуа;29;10-5-0;165.1;56.68;;SAN DIEGO;;1.12.13;;;;;;173.99;96.52;36%;146;403;20%;1;5;2.38;3.20;0.24;0.24;60%;63%;0.98;10:13;116 (79%);12 (8%);18 (12%);117 (80%);18 (12%);11 (8%);8 (80%);1 (10%);1 (10%)
2;;Jarred;Джэрад;the monkey god;Brooks;Брукс;25;14-2-0;160.01;56.68;;WARSAW;;30.7.17;;;;;;157.47;91.44;46%;112;243;57%;13;28;2.12;1.66;4.54;0.57;63%;69%;0;13:14;45 (40%);20 (18%);47 (42%);73 (65%);32 (29%);7 (6%);2 (17%);5 (42%);5 (42%)
3;;Elias;Элайас;;Garsia;Гарсия;26;6-2-0;166.37;56.68;;;;;;;;;;170.18;93.98;28%;35;127;14%;0;7;1.59;05.05;0.68;1.36;50%;33%;0.68;11:00;32 (91%);3 (9%);0 (0%);19 (54%);4 (11%);12 (34%);2 (33%);1 (17%);3 (50%)
4;;Mark;Марк;Bumblebee;De la rosa;Де ла роса;24;11-1-0;167.64;61.22;;FORT WORTH;;30.12.17;;;;;;165.1;96.52;43%;93;215;20%;2;10;3.24;3.00;01.05;0.52;57%;50%;0.00;09:34;71 (76%);16 (17%);6 (6%);54 (58%);19 (20%);20 (22%);1 (1%);64 (90%);6 (8%)
5;;Naoki;Наоки;;Inoue;Иноуе;21;11-0-0;175.26;56.68;; TOYOHASHI;;17.6.17;;;;;;180.34;96.52;35%;110;312;0%;0;3;3.67;3.37;0.00;2.50;61%;60%;0.00;15:00;77 (70%);13 (12%);20 (18%);82 (75%);4 (4%);24 (25%;0 (0%);4 (36%);7 (64%)
6;;Joseph;Джозеф;Bopo;Morales;Моралес;24;9-2-0;167.64;56.68;;CLOVIS;;6.8.17;;;;;;172.72;96.52;37%;45;121;50%;0;2;1.58;1.72;0.53;2.63;61%;23%;0.53;09:30;24 (53%);2 (4%);19 (42%);31 (69%);10 (22%);4 (9%);2 (22%);2 (22%);5 (56%)
7;;Brandon;Брэндон;The assasin baby;Moreno;Морено;24;14-5-0;170.18;56.68;;TIJUANA;;2.10.16;10;3;1;;;177.8;96.52;34%;176;521;41%;12;29;2.65;03.02;2.71;0.90;65%;62%;0.23;13:18;138 (78%);17 (10%);21 (12%);114 (65%);28 (16%);34 (19%);1 (7%);3 (21%);10 (71%)
8;;Ashkan;Ашхан;The assasin ;Mokhtarian;Мохтарян;33;13-3-0;167.64;56.68;; TEHRAN;;11.6.17;;;;;;170.18;96.52;44%;54;124;17%;1;6;1.95;3.66;0.54;0.00;44%;33%;0.00;13:49;51 (94%);1 (2%);2 (4%);22 (41%);13 (24%);19 (35%);6 (46%);1 (8%);6 (46%)
9;;Ben;Бен;10;Nguyen;Нгуэн;30;17-8-0;165.1;56.68;;SIOUX FALLS;intergated MMA Brisbane Australia;9.5.15;5;3;3;;;165.1;99.06;40%;210;524;33%;1;3;3.51;03.01;0.25;1.00;59%;63%;0.75;08:32;164 (78%);31 (15%);15 (7%);145 (69%);40 (19%);25 (12%);9 (53%);3 (18%);5 (29%)
10;;Said;Саид;;Nurmagomedov;Нурмагомедов;26;13-1-0;172.72;56.65;;DAGESTAN;;14.7.18;;;;;;177.8;97.79;58%;65;113;9%;1;11;4.13;2.13;1.00;0.00;63%;100%;0.00;15:00;45 (69%);14 (22%);6 (9%);40 (62%);13 (20%);12 (18%);2 (18%);6 (55%);3 (27%)
11;7;Alex;Алекс;;Perez;Перез;26;21-5-0;167.64;56.68;;HANFORD;;8.8.17;;;;;;166.37;96.52;48%;151;316;47%;7;17;05.04;4.10;4.00;1.50;59%;88%;0.50;07:30;106 (70%);33 (22%);12 (8%);100 (66%);26 (17%);25 (17%);4 (19%);11 (52%);6 (29%)
12;;Sergio;Серхио;;Pettis;Петтис;;17-5-0;167.64;56.68;;MILWAUKEE;;16.11.13;3;3;11;;;175.26;96.52;37%;723;1935;40%;11;30;3.68;2.93;0.92;0.38;64%;68&;0.08;15:06;640 (89%);37 (5%);46 (6%);569 (79%);77 (11%);77 (11%);3 (18%);11 (65%);3 (18%)
13;;Hector;Гектор ;Kid Alex;Sandoval;Сандовал;32;14-4-0;157.47;56.68;;URUAPAN;;31.7.16;;;;;;162.56;91.44;52%;71;136;25%;5;20;3.31;2.33;3.49;1.40;66%;71%;0.00;05:22;31 (44%);30 (42%);10 (14%);40 (56%);22 (31%);9 (13%);3 (25%);7 (58%);2 (17%)
14;;Roberto;Роберто;Littlefury;Sanchez;Санчез;32;8-2-0;167.64;56.68;;HOUSTON;;6.8.17;;;;;;168.91;93.98;41%;20;49;63%;5;8;0.96;1.78;3.61;0.72;46%;50%;0.00;06:55;6 (30%);1 (5%);13 (65%);13 (65%);6 (30%);1 (5%);0 (0%);1 (13%);7 (88%)
15;;Joby;Джоби;;Sanchez;Санчез;27;11-4-0;167.64;56.68;;;JACKSON WINK MMA ACADEMY - NM;23.8.14;;;;;;172.72;99.06;33%;189;580;50%;2;4;3.36;3.94;0.53;0.27;64%;52%;0.53;11:16;159 (84%);14 (7%);16 (8%);142 (75%);44 (23%);3 (2%);4 (36%);3 (27%);4 (36%)
16;;Ulka;Юта;;Sasaki;Сасаки;28;20-6-2;180.34;61.67;;SHIZUOKA;;23.8.14;11;7;1;;;180.34;107.95;41%;139;336;43%;13;30;2.16;2.50;03.03;1.16;50%;41%;0.00;07:10;95 (68%);13 (9%);31 (22%);83 (60%);33 (24%);23 (17%);2 (10%);7 (35%);11 (55%)
17;;Justin;Джастин;;Scoggins;Скоггинз;26;11-5-0;170.18;56.68;;SPARTANBURG;Revolution martial arts inman, SC;15.3.14;;;;;;167.64;99.06;52%;359;694;64%;23;36;3.56;2.16;3.42;0.45;56%;83%;0.15;11:12;222 (62%);38 (11%);99 (28%);236 (66%);74 (21%);49 (14%);6 (55%);4 (36%);1 (9%)
18;;Jose;Хосе;Shorty;Torres;Торрес;26;8-1-0;162.56;56.68;;CHICAGO;;4.8.18;;;;;;165.1;93.98;37%;51;138;33%;1;3;4.37;9.84;1.28;0.00;50%;75%;0.00;05:51;37 (73%);9 (18%);5 (10%);36 (71%);12 (24%);3 (6%);4 (50%);2 (25%);2 (25%)
19;4;Deiveson;Дейвезон ;Deus da guerra;Figueiredo;Фигередо;30;15-0-0;165.1;56.68;;SOURE;;3.6.17;15;8;0;;;172.72;96.52;55%;96;175;54%;7;13;2.25;1.62;2.46;3.86;54%;50%;1.41;10:41;37 (39%);9 (9%);50 (52%);64 (67%);31 (32%);1 (1%);8 (53%);2 (13%);5 (33%)
20;1;Jussier;Джуссиер;;Formiga;Формига;33;22-5-0;165.1;56.68;;RIO GRANDE DO NORTE;;6.10.12;3;10;37;;;170.18;93.98;38%;183;477;38%;15;45;1.34;2.17;1.86;0.66;66%;85%;0.22;11:25;125 (68%);27 (15%);31 (17%);129 (70%);31 (17%);23 (13%);0 (0%);37 (79%);10 (21%)
21;;ERIC;ЭРИК;SHOWTIME;SHELTON;ШЕЛТОН;27;12-5-0;167.64;56.68;;;;29.1.17;;;;;;172.72;92.71;45%;206;462;52%;10;33;2.75;1.63;3.40;0.20;66%;43%;0.00;15:00;108 (52%);3 (1%);95 (46%);165 (80%);30 (15%);11 (5%);2 (17%);5 (42%);5 (42%)
22;;MATT;МЭТТ;DANGER;SCHNELL;ШНЕЛЛ;28;13-4-0;172.72;56.68;;;;4.12.16;;;;;;177.8;96.52;35%;153;436;40%;1;5;3.69;3.69;0.72;1.45;63%;55%;0.00;08:18;136 (89%);17 (11%);0 (0%);95 (62%);14 (9%);44 (29%);2 (17%);4 (33%);6 (50%)
23;;IURI;ЮРИ;MARAJO;ALCANTARA;АЛЬКАНТАРА;38;35-10-0;175.26;61.22;;MARAJO;;27.8.11;;;;;;180.34;101.6;46%;483;1057;63%;17;27;2.72;2.79;1.44;0.84;49%;60%;0.42;09:21;303 (63%);45 (9%);135 (28%);316 (65%);130 (27%);37 (8%);0 (0%);0 (0%);0 (0%)
24;14;THOMAS ;ТОМАС;THOMINHA;ALMEDIA;АЛЬМЕЙДА;27;21-3-0;170.18;65.75;;SAO PAULO;CHUTE BOXE - SAO PAULO;9.11.14;17;3;1;;;177.8;97.79;46%;346;758;0%;0;0;5.66;4.65;0.00;0.00;65%;76%;0.74;07:38;309 (89%);37 (11%);0 (0%);219 (63%);60 (17%);67 (19%);17 (81%);1 (5%);3 (14%)
25;;RENAN;РЕНАН;THE BARON;BARAO;БАРАО;31;36.8.0;177.8;99.06;;NATAL;NOVA UNIAO - RIO DE JANEIRO;29.5.11;;;;;;177.8;99.06;37%;894;2434;45%;19;51;3.78;3.83;1.46;0.57;58%;91%;0.25;13:09;731 (82%);116 (13%);47 (5%);523 (59%);208 (23%);163 (18%);8 (22%);13 (36%);15 (42%)
26;;MARIO;МАРИО;;BAUTISTA;БАУТИСТА;25;0-0-0;175.26;61.22;;WINNEMUCA;;;;;;;;;;;;;;;;;;;;;;;;;;;;;;;;
27;;MANNY;МЭННИ;THE BERMUDEZ TRIANGLE;BERMUDEZ;БЕРМУДЕЗ;24;14-0-0;177.8;61.22;;BOSTON;;24.2.18;;;;;;181.61;101.6;51%;22;43;33%;1;6;1.88;2.57;2.57;7.70;58%;;1.28;03:54;10 (45%);1 (5%);11 (50%);18 (82%);4 (8%);;1 (7%);2 (14%);11 (79%)
28;;WULIJI;ВУЛИЖИ;BEAST MASTER;BUREN;БУРЕН;29;10-7-0;175.26;65.75;;CHI FENG;;25.11.17;;;;;;175.26;96.52;40%;48;121;40%;6;15;1.93;2.85;3.62;;62%;80%;;12:27;33 (69%);9 (19%);6 (13%);27 (56%);12 (25%);9 (19%);2 (20%);4 (40%);4 (40%)
29;;MARION;МАРЛОН;CHITO;VERA;ВЕРА;25;12-5-1;172.72;61.22;;CHONE;TEAM 5050 GUAYAQUIL ECUADOR;15.11.14;;;;;;172.72;61.22;45%;371;829;38%;0;0;3.23;3.93;0.78;1.31;52%;69%;0.52;11:29;264 (71%);50 (13%);57 (15%);193 (51%);94 (25%);84 (23%);3 (25%);2 (17%);7 (58%)
30;;NATHANIEL;НАТАНИЭЛЬ;THE PROSPECT;WOOD;ВУД;25;15-3-0;167.64;61.22;;LONDON;;1.6.18;;;;;;167.64;61.22;45%;94;211;67%;0;3;4.37;2.42;1.40;1.40;64%;100%;0.70;10:45;61 (65%);4 (4%);29 (31%);52 (55%);19 (20%);26 (24%);9 (60%);2 (13%);4 (27%)
31;;TERRION;ТЭРРИОН;FLASH;WARE;ВЭЙР;32;17-8-0;172.72;61.22;;LOS ANGELES;;9.7.17;;;;;;180.34;99.06;33%;241;741;22%;0;9;4.02;6.07;0.50;;50%;45%;;15:00;210 (87%);16 (7%);15 (6%);168 (68%);47 (20%);29 (12%);6 (35%);8 (47%);3 (18%)
32;;MITCH;МИТЧ;;GAGNON;ГАНЬОН;33;12-4-0;165.1;61.22;;STURGEON FALLS;TROOP MMA;21.7.12;;;;;;165.1;91.44;49%;200;409;26%;6;23;3.18;2.13;1.43;1.91;63%;68%;0.48;08:59;117 (59%);46 (23%);37 (19%);127 (64%);50 (25%);23 (12%);;1 (8%);11 (92%)
33;;DAVEY;ДЭЙВИ;DANGEROUS;GRANT;ДЭЙВИ;32;10-4-0;172.72;61.22;;BISHOP AUCKLAND;SBG MANCHESTER;1.12.13;;;;;;175.26;101.6;54%;130;243;30%;3;10;3.60;1.41;1.25;;68%;65%;;09:01;70 (54%);34 (26%);26 (20%);74 (57%);36 (28%);20 (15%);1 (11%);1 (11%);7 (78%)
34;;MERAB;МЕРАБ;DVALISHVILI;TBILISI;ДВАЛИШВИЛИ;27;8-3-0;167.64;61.22;;TBILISI;;9.12.17;;;;;;167.64;96.52;34%;170;493;42%;17;53;3.78;2.22;7.33;0.00;59%;80%;0.33;15:00;86 (51%);31 (18%);53 (31%);127 (75%);23 (14%);20 (12%);2 (29%);4 (57%);1 (14%)
35;;MONTEL;МОНТЕЛ;QUIK;JACKSON;ДЖЕКСОН;27;7-0-0;177.8;61.22;;MILWAUKEE;;4.8.18;;;;;;191.77;104.14;47%;52;110;100%;2;2;3.18;3.00;1.80;0.90;59%;68%;;08:20;30 (58%);17 (33%);5 (10%);33 (63%);15 (29%);4 (8%);5 (83%;1 (17%);0 (0%)
36;12;JOHN;ДЖОН;THE MAGICIAN;DODSON;ДОДСОН;34;21-11-0;160.02;56.68;;ALBUQUERQUE;JACKSON WINK MMA ACADEMY - NM;4.12.11;;;;;;167.64;88.9;41%;676;1664;29%;9;38;3.28;3.55;0.80;0.00;62%;81%;0.73;13:45;574 (85%);79 (12%);23 (3%);372 (55%);209 (31%);95 (14%);10 (48%);9 (43%);2 (10%)
37;;TOM;ТОМ;FIRE KID;DUQUESNOY;ДЮКЕНУА;25;15-2-0;170.18;61.22;;PARIS;;16.4.17;;;;;;172.72;95.25;45%;136;300;25%;1;4;3.83;5.30;0.42;0.00;63%;47%;0.85;11:49;115 (85%);20 (15%);1 (1%);66 (49%);30 (22%);40 (29%);8 (53%);3 (20%);4 (27%)
38;;AIEMANN;АЙМАНН;;ZAHABI;ЗАХАБИ;30;7-1-0;172.72;61.22;;LAVAL;;20.2.17;;;;;;173.99;96.52;41%;90;170;;;1;3.34;3.93;;;63%;72%;0.56;13:29;80 (89%);7 (8%);3 (3%);77 (86%);11 (12%);2 (2%);3 (43%);1 (14%);3 (43%)
39;;TERUTO;ТЕРУТО;YASHABO;ISHIHARA;ИШИХАРА;27;11-6-2;170.18;66.21;;KAGOSHIMA;TEAM ALPHA MALE JAPAN, OTHER GYMS;26.9.15;;;;;;175.26;93.98;45%;295;660;17%;3;18;3.26;3.63;0.50;0.00;54%;31%;1.33;10:04;235 (80%);24 (8%);36 (12%);167 (57%);52 (18%);76 (26%);8 (73%);3 (27%);0 (0%)
40;;KYUNG HO;КУНГ ХО;MR. PERFECT;KANG;КАНГ;31;15-8-0;175.26;61.22;;BUSAN;;2.3.13;;;;;;185.42;99.06;43%;188;441;67%;;18;2.39;1.97;2.29;1.33;59%;75%;0.00;13:08;99 (53%);5 (3%);84 (45%);140 (74%);16 (9%);32 (17%);2 (14%);2 (14%);10 (71%)
41;;GUIDO;ГУИДО;NINJA;CANNETTI;КАННЕТТИ;38;8-4-0;167.64;60.77;;SAN ANTONIO DE PADUA;TUAN MMA;15.11.14;;;;;;172.72;97.79;52%;135;258;50%;7;18;2.80;1.95;2.80;0.31;51%;75%;0.00;09:38;63 (47%);45 (33%);27 (20%);63 (47%);50 (37%);22 (16%);3 (38%);2 (25%);3 (38%)
42;;BRYAN;БРАЙЭН;KID LIGHTNING;CARAWAY;КАРАУЭЙ;34;21-10-0;172.72;61.22;;YAKIMA;XTREME COUTURE - LAS VEGAS, NV;21.7.12;;;;;;172.72;100.33;34%;353;1033;25%;19;93;2.55;3.66;2.49;0.65;54%;81%;0.00;11:32;303 (86%);38 (11%);12 (3%);288 (82%);36 (10%);29 (8%);2 (10%);3 (14%);16 (76%)
43;;JOSE;ХОСЕ;EL TECO;QUINONEZ;КУИНОНЕС;28;8-3-0;172.72;63.49;;;;15.11.14;;;;;;175.26;100.33;46%;238;515;46%;12;28;3.38;2.49;2.77;0.85;67%;57%;0.43;11:43;194 (82%);16 (7%);28 (12%);126 (53%);46 (19%);66 (28%);2 (25%);5 (63%);1 (13%)
44;;BHARAT;БХАРАТ;DARING;KANDARE;КЭНДЕЙР;31;5-3-0;170.18;61.22;;BHAGUR, NASHIK;;25.11.17;;;;;;182.88;101.6;10%;3;30;;;1;0.70;1.88;0.00;0.00;72%;;0.00;04:16;3 (100%);0 (0%);0 (0%);1 (33%);0 (0%);2 (67%);1 (20%);0 (0%);4 (80%)
45;8;JOHN;ДЖОН;HANDS OF STONE;LINEKER;ЛИНКЕР;28;31-8-0;160.02;61.67;;PARANAGUA;OCS - PARANAGUA;;;;;;;170.18;91.44;40%;904;2258;60%;6;10;5.22;3.95;0.52;0.61;56%;69%;01.04;11:33;728 (81%);77 (9%);99 (11%);505 (56%);321 (36%);78 (9%);14 (45%);13 (42%);4 (13%)
46;;BENITO;БЕНИТО;GOLDEN BOY;LOPEZ;ЛОПЕЗ;24;9-1-0;177.8;61.22;;OROVILLE;;22.8.17;;;;;;185.42;104.14;43%;85;199;;;;4.68;9.20;0.00;0.83;60%;79%;0.83;09:05;76 (89%);9 (11%);0 (0%);58 (68%);15 (18%);12 (14%);3 (33%);4 (44%);2 (22%)
47;;PINGYUAN;ПИНЮАНЬ;;LIU;ЛЮ;25;12-5-0;172.72;61.22;БОКС;;;22.7.18;;;;;;177.8;;41%;87;210;20%;1;5;2.90;4.13;0.50;2.00;47%;56%;0.50;15:00;65 (75%);9 (10%);13 (15%);62 (71%);17 (20%);8 (9%);3 (30%);3 (30%);4 (40%)
48;;;ВИНС;;;МОРАЛЕС;;8-2-0;;;;;;;;;;;;;;;;;;;;;;;;;;;;;;;;;;;;
49;;SEAN;ШОН;SUGAR;O'MALLEY;О'МЭЛЛИ;23;10-0-0;180.34;61.22;;HELENA;;18.7.17;;;;;;182.88;101.6;56%;204;363;50%;3;6;6.80;4.63;1.50;1.50;62%;62%;0.00;15:00;184 (90%);7 (3%);13 (6%);160 (78%);35 (17%);9 (4%);6 (60%);3 (30%);1 (10%)
50;;RICARDO;РИКАРДО;;RAMOS;РАМОС;23;12-1-0;175.26;61.22;;CAMPINAS;;4.2.17;;;;;;182.88;101.6;43%;141;328;50%;4;8;3.36;3.31;1.43;0.71;59%;73%;0.71;13:59;107 (76%);15 (11%);19 (13%);97 (69%);23 (16%);21 (15%);3 (25%);3 (25%);6 (50%)
51;;FRANKIE;ФРЭНКИ;;SAENZ;САЕНЗ;38;13-6-0;167.64;61.67;;PHOENIX;FIGHT READY - SCOTTSDALE, AZ;16.8.14;;;;;;167.64;96.52;47%;470;1001;33%;14;43;3.97;3.15;1.77;0.13;54%;63%;0.25;13:09;257 (55%);165 (35%);48 (10%);226 (48%);121 (26%);123 (26%);3 (23%);8 (62%);2 (15%)
52;15;RICKY;РИКИ;;SIMON;САЙМОН;26;11-1-0;167.64;61.22;;PENDLETON;;8.8.17;;;;;;175.26;96.52;39%;113;293;41%;9;32;2.51;4.13;4.33;0.33;70%;74%;0.67;15:00;84 (74%);12 (11%);17 (15%);72 (64%);25 (22%);16 (14%);5 (36%);7 (50%);2 (14%)
53;;LUKE;ЛЮК;COOL HAND;SANDERS;САНДЕРС;32;13-3-0;167.64;63.49;;BRENHAM;NASHVILLE MMA;17.1.16;;;;;;170.18;91.44;52%;243;468;25%;1;4;6.00;04.05;0.37;0.37;54%;70%;1.11;06:45;140 (58%);21 (9%);82 (34%);202 (83%);28 (12%);13 (5%);7 (58%);4 (33%);1 (8%)
54;;DOUGLAS;ДУГЛАС;D SILVA;SILVA DE ANDRADE;СИЛВА ДЕ АНДРАДЕ;33;25-3-0;170.18;61.22;;CASTANHAL;ACADEMIA CORINTHIANS - SAO PAULO;15.2.14;19;5;0;;;173.99;95.25;37%;291;788;50%;4;8;3.77;4.54;0.78;0.00;58%;60%;0.39;12:52;273 (94%);13 (4%);5 (2%);170 (58%);54 (19%);67 (23%);19 (76%);5 (20%);1 (4%)
55;3;ALJAMAIN;АЛДЖЭМЕЙН;FUNK MASTER;STERLING;СТЕРЛИНГ;29;17-3-0;170.18;61.67;;;SERRA-LONGO - LONG ISLAND, NY;22.2.14;7;476;;;3;180.34;99.06;51%;627;1232;33%;21;64;4.18;1.45;2.10;0.90;69%;52%;0.00;12:31;353 (56%);133 (21%);141 (22%);280 (45%);219 (35%);128 (20%);2 (0%);476 (98%);7 (1%)
56;10;CODY;КОДИ;SPARTAN;STAMANN;СТЭМЕНН;28;18-2-0;168.91;61.22;;GRAND RAPIDS;;9.7.17;2;9;;6;;163.83;88.9;48%;315;658;52%;15;29;4.59;3.29;3.28;0.00;63%;86%;0.00;13:44;220 (70%);54 (17%);41 (13%);197 (63%);79 (25%);39 (12%);6 (35%);9 (53%);2 (12%)
57;;ANDRE;АНДРЭ;THE ASIAN SENSATION;SOUKHAMTHATH;СУХАМТАТ;29;16-6-0;175.26;61.22;;PROVIDENCE;;5.3.17;3;;0;8;;177.8;95.25;45%;213;470;64%;4;11;3.22;3.89;1.59;0.23;54%;75%;1.36;13:13;132 (62%);52 (24%);29 (14%);103 (48%);77 (36%);33 (15%);8 (62%);2 (15%);3 (23%)
58;;BOSTON;БОСТОН;BOOM BOOM;SALMON;СЭЛМОН;27;6-1-0;175.26;61.22;;HONOLULU;;11.7.17;;;;;;175.26;99.06;;;;;;;;;;;;;;0:00;0 (0%);0 (0%);0 (0%);0 (0%);0 (0%);0 (0%);4 (67%);2 (33%);0 (0%)
59;;CORY;КОРИ;;SANDHAGEN;СЭНДХАГЕН;26;10-1-0;180.34;65.75;;AURORA;;28.1.18;;;;;;177.8;101.6;52%;163;314;67%;1;3;8.89;2.73;1.64;1.64;65%;;1.64;06:07;64 (39%);20 (12%);79 (48%);121 (74%);25 (15%);17 (10%);4 (44%);3 (33%);2 (22%)
60;;CHRIS;КРИС;HOLDS IT DOWN;HOLDSWORTH;ХОЛСВОРТ;30;7-0-0;180.34;61.22;;LOS ANGELES;TEAM ALPHA MALE (URIJAH FABER'S ULTIMATE FITNESS);1.12.13;;;;;;180.34;;30%;41;138;63%;5;8;1.85;1.94;3.38;02.03;58%;100%;0.00;11:05;31 (76%);9 (22%);1 (2%);27 (66%);9 (22%);5 (12%);0 (0%);1 (14%);6 (86%)
61;;ANDRE;АНДРЕ;;EWELL;ЭВЕЛЛ;30;13-5-0;180.34;61.22;;ANAHEIM;;23.9.18;;;;;;193.04;;38%;68;181;100%;1;1;2.33;3.60;0.51;0.00;51%;38%;0.51;14:36;65 (96%);2 (3%);1 (1%);51 (75%);16 (24%);1 (1%);7 (50%);3 (21%);4 (29%)
62;;SONG;СОНГ;;YADONG;ЯДОНГ;20;13-3-0;172.72;61.22;;HEILONGJIANG;;25.11.17;;;;;;170.18;96.52;42%;126;301;100%;1;3;4.31;2.91;1.54;01.03;68%;100%;01.03;09:45;95 (75%);6 (5%);25 (20%);87 (69%);21 (17%);18 (14%);5 (38%);5 (38%);3 (23%)
63;;NORIFUMI;НОРИФУМИ;KID;YAMAMOTO;ЯМОМОТО;41;18-6-0;157.47;61.22;;KANAGAWA;;5.2.11;;;;;;167.64;;37%;71;191;25%;2;8;1.69;3.52;0.71;0.00;57%;45%;0.00;10:32;58 (82%);11 (15%);2 (3%);50 (70%);12 (17%);9 (13%);0 (0%);0 (0%);0 (0%)
64;9;PETR;ПЕТР;NO MERCY;YAN;ЯН;25;12-1-0;171.45;61.22;;OMSK;;23.6.18;;;;;;170.18;96.52;52%;281;545;50%;;10;6.46;2.92;1.73;0.35;69%;83%;0.69;10:52;195 (69%);44 (16%);42 (15%);215 (77%);56 (20%);10 (4%);5 (45%);5 (45%);1 (9%)
65;;RANI;РЭНИ;;YAHYA;ЯЯ;34;26-10-0;167.64;61.22;;BRASILIA;CONSTRICTOR TEAM BRAZILIA;23.1.11;;;;;;170.18;95.25;39%;312;807;35%;34;126;1.48;1.46;3.13;2.27;50%;23%;0.00;09:35;207 (66%);27 (9%);78 (25%);176 (56%);65 (21%);71 (23%);0 (0%);6 (23%);20 (77%)
66;;ARNOLD;АРНОЛЬД;ALMIGHTY;ALLEN;АЛЛЕН;24;14-1-0;172.72;65.75;;IPSWICH;BKK / TRISTAR;20.6.15;;;;;;177.8;99.06;34%;152;451;57%;8;14;2.19;1.83;1.73;0.65;62%;69%;0.43;13:52;114 (75%);9 (6%);29 (19%);113 (74%);31 (20%);8 (5%);5 (2%);203 (96%);4 (2%)
67;;MAKWAN;МАКВАН;MR. FINLAND;AMIRKHANI;АМИРХАНИ;29;14-3-0;177.8;65.75;;;ALLSTARTS GYM;24.1.15;;;;;;182.88;104.14;50%;82;165;48%;12;25;1.75;1.60;3.84;1.60;60%;57%;0.32;9:22;38 (46%);0 (0%);44 (54%);77 (94%);4 (5%);1 (1%);1 (7%);4 (29%);9 (64%)
68;;AUSTIN;ОСТИН;GOLDEN BOY;ARNETT;АРНЕТТ;26;16-6-0;182.88;65.75;;LEWISTON;;1.8.17;;;;;;182.88;104.14;47%;129;274;18%;1;11;3.32;8.22;0.77;0.00;63%;40%;0.00;12:56;93 (72%);18 (14%);18 (14%);94 (73%);34 (26%);1 (1%);7 (44%);4 (25%);5 (31%)
69;;JULIO;ХУЛИО;;ARCE;АРСЕ;28;15-3-0;170.18;65.75;;;;8.8.17;;;;;;177.8;99.06;32%;160;498;17%;;6;3.73;2.89;0.35;01.05;68%;94%;0.00;14:18;136 (85%);18 (11%);6 (4%);113 (71%);41 (26%);6 (4%);3 (21%);6 (43%);5 (36%)
70;;ENRIQUE;ЭНРИКЕ;EL FUERTE;BARZOLA;БАРЗОЛА;29;16-4-1;170.18;70.29;;LIMA;PITBULL MARTIAL ARTS CENTER;21.11.15;;;;;;177.8;91.44;43%;369;853;47%;37;78;3.51;2.49;5.29;0.29;71%;75%;0.00;15:00;268 (73%);29 (8%);72 (20%);210 (57%);69 (19%);90 (24%);5 (31%);7 (44%);4 (25%)
71;;RAONI;РАОНИ;;BARCELOS;БАРСЕЛОС;31;13-1-0;171.45;61.22;;;;14.7.18;;;;;;170.18;99.06;56%;117;209;83%;3;6;5.66;6.19;3.63;0.73;54%;75%;0.73;10:21;70 (60%);8 (7%);39 (33%);109 (93%);5 (4%);3 (3%);7 (58%);4 (33%);1 (8%)
72;;GABRIEL;ГАБРИЭЛЬ;MOGGLY;BENITEZ;БЕНИТЕЗ;30;21-7-0;172.72;65.75;;TIJUANA;AKA (AMERICAN KICKBOXING ACADEMY) SAN JOSE;15.11.14;;;;;;180.34;102.87;42%;278;656;100%;1;1;4.23;2.60;0.23;1.60;73%;56%;0.46;9:23;248 (89%);8 (3%);22 (8%);153 (55%);68 (24%);57 (21%);7 (33%);4 (19%);10 (48%)
73;;KYLE;КАЙЛ;CRASH;BOCHNIAK;БОЧНИАК;31;8-4-0;170.18;65.75;;BEVERLY;;18.1.16;;;;;;177.8;97.79;32%;234;728;19%;5;37;2.60;4.73;1.17;0.00;59%;63%;0.17;15:00;211 (90%);18 (8%);5 (2%);155 (66%);30 (13%);49 (21%);2 (25%);4 (50%);2 (25%)
74;;MARTIN;МАРТИН;EL TORO;BRAVO;БРАВО;24;12-2-0;172.72;65.75;;ROSARITO;;6.11.16;;;;;;181.61;96.52;38%;135;360;33%;3;9;06.04;5.19;02.01;0.00;50%;86%;0.67;07:27;119 (88%);9 (7%);7 (5%);101 (75%);25 (19%);9 (7%);5 (42%);2 (17%);5 (42%)
75;;SHANE;ШЕЙН;HURRICANE;BURGOS;БУРГОС;27;11-1-0;180.34;65.75;;NEW YORK;;10.12.16;;;;;;191.77;101.6;47%;358;763;100%;2;2;6.54;5.47;0.55;0.27;66%;94%;1.37;10:56;296 (83%);35 (10%);27 (8%);263 (73%);58 (16%);37(10%);4 (36%);2 (18%);5 (45%)
76;;HUMBERTO;УМБЕРТО;;BANDENAY;БЭНДЕНЕЙ;24;14-6-0;180.34;65.75;;LIMA;;6.8.17;;;;;;181.61;101.6;39%;37;94;67%;;3;2.30;5.22;1.87;0.93;39%;71%;0.93;05:22;29 (78%);6 (16%);2 (5%);16 (43%);11 (30%);10 (27%);5 (36%);3 (21%);6 (43%)
77;;MATT;МЭТТ;THE MANGLER;BESSETTE;БЭСЕТТ;33;22-9-0;177.8;65.75;;HARTFORD;;11.7.17;;;;;;179.07;99.06;35%;100;287;0%;;3;3.33;6.93;0.00;0.00;59%;61%;0.00;15:00;86 (86%);12 (12%);2 (2%);69 (69%);27 (27%);4 (4%);7 (32%);7 (32%);8 (36%)
78;;DANNY;ДЭННИ;THE HATCHET;HENRY;ГЕНРИ;30;12-3-0;182.88;65.75;;EDINBURGH;;16.7.17;;;;;;185.42;101.6;53%;99;186;33%;1;3;5.85;4.84;0.89;2.66;45%;67%;1.77;05:39;55 (56%);6 (6%);38 (38%);73 (74%);19 (19%);7 (7%);5 (42%);2 (17%);5 (42%)
79;;RICK;РИК;THE GLADIATOR;GLENN;ГЛЕНН;29;21-6-1;182.88;70.29;;MARSHALLTOWN;;18.9.16;;;;;;179.07;102.87;42%;388;915;14%;4;29;4.31;4.29;0.67;0.33;53%;67%;0.17;15:00;223 (53%);66 (17%);99 (26%);246 (63%);98 (25%);44 (11%);12 (57%);6 (29%);3 (14%)
